code/avr/tutorials/pwm_led.vcd
$timescale 1us $end
$scope module logic $end
$var wire 8 ! DDRB $end
$var wire 8 " TCCR0B $end
$var wire 8 # TCCR0A $end
$var wire 8 $ TCNT0 $end
$var wire 8 % OCR0A $end
$upscope $end
$enddefinitions $end
$dumpvars
b00000000 !
b00000000 "
b00000000 #
b00000000 $
b00000000 %
$end
#3ld
b00000000 !
#4ld
b00000100 !
b00000000 "
#5ld
b00000001 "
b00000000 #
b11000000 #
b00000001 "
#6ld
b00000001 "
b11000000 #
b11000001 #
b00000001 "
b00001001 "
b10000000 %
b00000000 $
#7ld
b00000000 $
#8ld
b00000000 $
#9ld
b00000000 $
#10ld
b00000000 $
#11ld
b00000000 $
#12ld
b00000000 $
#13ld
b00000000 $
#14ld
b00000000 $
#15ld
b00000000 $
#16ld
b00000000 $
#17ld
b00000000 $
#18ld
b00000000 $
#19ld
b00000000 $
#20ld
b00000000 $
#21ld
b00000000 $
#22ld
b00000000 $
#23ld
b00000000 $
#24ld
b00000000 $
#25ld
b00000000 $
#26ld
b00000000 $
#27ld
b00000000 $
#28ld
b00000000 $
#29ld
b00000000 $
#30ld
b00000000 $
#31ld
b00000000 $
#32ld
b00000000 $
#33ld
b00000000 $
#34ld
b00000000 $
#35ld
b00000000 $
#36ld
b00000000 $
#37ld
b00000000 $
#38ld
b00000000 $
#39ld
b00000000 $
#40ld
b00000000 $
#41ld
b00000000 $
#42ld
b00000000 $
#43ld
b00000000 $
#44ld
b00000000 $
#45ld
b00000000 $
#46ld
b00000000 $
#47ld
b00000000 $
#48ld
b00000000 $
#49ld
b00000000 $
#50ld
b00000000 $
#51ld
b00000000 $
#52ld
b00000000 $
#53ld
b00000000 $
#54ld
b00000000 $
#55ld
b00000000 $
#56ld
b00000000 $
#57ld
b00000000 $
#58ld
b00000000 $
#59ld
b00000000 $
#60ld
b00000000 $
#61ld
b00000000 $
#62ld
b00000000 $
#63ld
b00000000 $
#64ld
b00000000 $
#65ld
b00000000 $
#66ld
b00000000 $
#67ld
b00000000 $
#68ld
b00000000 $
#69ld
b00000000 $
#70ld
b00000000 $
#71ld
b00000000 $
#72ld
b00000000 $
#73ld
b00000000 $
#74ld
b00000000 $
#75ld
b00000000 $
#76ld
b00000000 $
#77ld
b00000000 $
#78ld
b00000000 $
#79ld
b00000000 $
#80ld
b00000000 $
#81ld
b00000000 $
#82ld
b00000000 $
#83ld
b00000000 $
#84ld
b00000000 $
#85ld
b00000000 $
#86ld
b00000000 $
#87ld
b00000000 $
#88ld
b00000000 $
#89ld
b00000000 $
#90ld
b00000000 $
#91ld
b00000000 $
#92ld
b00000000 $
#93ld
b00000000 $
#94ld
b00000000 $
#95ld
b00000000 $
#96ld
b00000000 $
#97ld
b00000000 $
#98ld
b00000000 $
#99ld
b00000000 $
#100ld
b00000000 $
#101ld
b00000000 $
#102ld
b00000000 $
#103ld
b00000000 $
#104ld
b00000000 $
#105ld
b00000000 $
#106ld
b00000000 $
#107ld
b00000000 $
#108ld
b00000000 $
#109ld
b00000000 $
#110ld
b00000000 $
#111ld
b00000000 $
#112ld
b00000000 $
#113ld
b00000000 $
#114ld
b00000000 $
#115ld
b00000000 $
#116ld
b00000000 $
#117ld
b00000000 $
#118ld
b00000000 $
#119ld
b00000000 $
#120ld
b00000000 $
#1000ld
b00000000 $
#1001ld
b00000000 $
#1002ld
b00000000 $
#1003ld
b00000000 $
#1004ld
b00000000 $
#1005ld
b00000000 $
